<?xml version="1.0" encoding="UTF-8"?>
<!DOCTYPE svg PUBLIC "-//W3C//DTD SVG 1.1//EN" "http://www.w3.org/Graphics/SVG/1.1/DTD/svg11.dtd">
<svg version="1.2" width="98.49mm" height="66.14mm" viewBox="0 0 9849 6614" preserveAspectRatio="xMidYMid" fill-rule="evenodd" stroke-width="28.222" stroke-linejoin="round" xmlns="http://www.w3.org/2000/svg" xmlns:ooo="http://xml.openoffice.org/svg/export" xmlns:xlink="http://www.w3.org/1999/xlink" xmlns:presentation="http://sun.com/xmlns/staroffice/presentation" xmlns:smil="http://www.w3.org/2001/SMIL20/" xmlns:anim="urn:oasis:names:tc:opendocument:xmlns:animation:1.0" xml:space="preserve">
 <defs class="ClipPathGroup">
  <clipPath id="presentation_clip_path" clipPathUnits="userSpaceOnUse">
   <rect x="0" y="0" width="9849" height="6614"/>
  </clipPath>
 </defs>
 <defs class="TextShapeIndex">
  <g ooo:slide="id1" ooo:id-list="id3 id4 id5 id6 id7 id8 id9 id10 id11 id12 id13 id14"/>
 </defs>
 <defs class="EmbeddedBulletChars">
  <g id="bullet-char-template(57356)" transform="scale(0.00048828125,-0.00048828125)">
   <path d="M 580,1141 L 1163,571 580,0 -4,571 580,1141 Z"/>
  </g>
  <g id="bullet-char-template(57354)" transform="scale(0.00048828125,-0.00048828125)">
   <path d="M 8,1128 L 1137,1128 1137,0 8,0 8,1128 Z"/>
  </g>
  <g id="bullet-char-template(10146)" transform="scale(0.00048828125,-0.00048828125)">
   <path d="M 174,0 L 602,739 174,1481 1456,739 174,0 Z M 1358,739 L 309,1346 659,739 1358,739 Z"/>
  </g>
  <g id="bullet-char-template(10132)" transform="scale(0.00048828125,-0.00048828125)">
   <path d="M 2015,739 L 1276,0 717,0 1260,543 174,543 174,936 1260,936 717,1481 1274,1481 2015,739 Z"/>
  </g>
  <g id="bullet-char-template(10007)" transform="scale(0.00048828125,-0.00048828125)">
   <path d="M 0,-2 C -7,14 -16,27 -25,37 L 356,567 C 262,823 215,952 215,954 215,979 228,992 255,992 264,992 276,990 289,987 310,991 331,999 354,1012 L 381,999 492,748 772,1049 836,1024 860,1049 C 881,1039 901,1025 922,1006 886,937 835,863 770,784 769,783 710,716 594,584 L 774,223 C 774,196 753,168 711,139 L 727,119 C 717,90 699,76 672,76 641,76 570,178 457,381 L 164,-76 C 142,-110 111,-127 72,-127 30,-127 9,-110 8,-76 1,-67 -2,-52 -2,-32 -2,-23 -1,-13 0,-2 Z"/>
  </g>
  <g id="bullet-char-template(10004)" transform="scale(0.00048828125,-0.00048828125)">
   <path d="M 285,-33 C 182,-33 111,30 74,156 52,228 41,333 41,471 41,549 55,616 82,672 116,743 169,778 240,778 293,778 328,747 346,684 L 369,508 C 377,444 397,411 428,410 L 1163,1116 C 1174,1127 1196,1133 1229,1133 1271,1133 1292,1118 1292,1087 L 1292,965 C 1292,929 1282,901 1262,881 L 442,47 C 390,-6 338,-33 285,-33 Z"/>
  </g>
  <g id="bullet-char-template(9679)" transform="scale(0.00048828125,-0.00048828125)">
   <path d="M 813,0 C 632,0 489,54 383,161 276,268 223,411 223,592 223,773 276,916 383,1023 489,1130 632,1184 813,1184 992,1184 1136,1130 1245,1023 1353,916 1407,772 1407,592 1407,412 1353,268 1245,161 1136,54 992,0 813,0 Z"/>
  </g>
  <g id="bullet-char-template(8226)" transform="scale(0.00048828125,-0.00048828125)">
   <path d="M 346,457 C 273,457 209,483 155,535 101,586 74,649 74,723 74,796 101,859 155,911 209,963 273,989 346,989 419,989 480,963 531,910 582,859 608,796 608,723 608,648 583,586 532,535 482,483 420,457 346,457 Z"/>
  </g>
  <g id="bullet-char-template(8211)" transform="scale(0.00048828125,-0.00048828125)">
   <path d="M -4,459 L 1135,459 1135,606 -4,606 -4,459 Z"/>
  </g>
 </defs>
 <defs class="TextEmbeddedBitmaps"/>
 <g>
  <g id="id2" class="Master_Slide">
   <g id="bg-id2" class="Background"/>
   <g id="bo-id2" class="BackgroundObjects"/>
  </g>
 </g>
 <g class="SlideGroup">
  <g>
   <g id="id1" class="Slide" clip-path="url(#presentation_clip_path)">
    <g class="Page">
     <g class="com.sun.star.drawing.ClosedBezierShape">
      <g id="id3">
       <rect class="BoundingBox" stroke="none" fill="none" x="2697" y="742" width="3895" height="2744"/>
       <path fill="rgb(255,255,255)" fill-opacity="0.349" stroke="rgb(255,255,255)" stroke-opacity="0.349" d="M 4698,742 C 4069,732 3333,982 2785,1216 2728,1380 2697,1555 2697,1736 2697,2702 3569,3484 4644,3484 5720,3484 6591,2702 6591,1736 6591,1431 6504,1143 6350,893 5912,825 5309,752 4698,742 Z"/>
      </g>
     </g>
     <g class="com.sun.star.drawing.ClosedBezierShape">
      <g id="id4">
       <rect class="BoundingBox" stroke="none" fill="none" x="3076" y="740" width="3161" height="2459"/>
       <path fill="rgb(255,255,255)" stroke="none" d="M 4644,742 C 4296,720 3695,902 3194,1084 3118,1263 3076,1460 3076,1666 3076,2512 3843,3198 4654,3198 5460,3198 6174,2511 6233,1666 6252,1391 6157,1132 6026,908 5507,817 4956,761 4644,742 Z"/>
      </g>
     </g>
     <g class="com.sun.star.drawing.ClosedBezierShape">
      <g id="id5">
       <rect class="BoundingBox" stroke="none" fill="none" x="2509" y="100" width="4831" height="4831"/>
       <path fill="rgb(204,0,0)" stroke="none" d="M 4923,100 L 4923,100 C 4479,100 4101,202 3717,424 3332,646 3055,923 2833,1308 2610,1693 2509,2071 2509,2515 2509,2960 2610,3338 2833,3723 3055,4108 3332,4384 3717,4607 4102,4829 4480,4930 4924,4930 5369,4930 5747,4829 6132,4607 6517,4384 6793,4108 7016,3723 7238,3338 7339,2960 7339,2515 L 7339,2515 7339,2515 C 7339,2071 7238,1693 7016,1308 6793,923 6517,646 6132,424 5746,201 5368,100 4924,100 4923,100 4923,100 4923,100 Z M 6555,2939 C 6555,2943 6556,2947 6556,2952 6556,3006 6543,3052 6516,3098 6490,3145 6456,3178 6410,3205 6376,3224 6345,3235 6307,3241 6022,3291 5424,3321 4923,3321 4422,3321 3824,3291 3539,3241 3501,3235 3469,3224 3436,3205 3390,3178 3356,3145 3329,3098 3302,3052 3290,3006 3290,2952 3290,2947 3290,2943 3290,2939 L 3290,1995 3290,1995 C 3291,1938 3304,1891 3333,1842 3361,1792 3397,1756 3448,1727 3477,1710 3505,1699 3539,1692 L 3539,1692 C 3680,1674 3800,1666 3942,1666 3953,1666 3962,1666 3973,1666 L 3973,1666 C 3992,1666 4008,1671 4025,1680 4042,1690 4054,1702 4064,1719 4074,1736 4078,1753 4078,1773 4078,1776 4078,1778 4078,1781 L 4078,2438 C 4372,2438 4628,2421 4923,2421 5218,2421 5474,2438 5768,2438 L 5768,1779 5768,1779 C 5768,1777 5768,1775 5768,1773 5768,1753 5773,1736 5782,1719 5792,1702 5804,1690 5821,1680 5838,1671 5854,1667 5873,1666 L 5873,1666 C 5877,1666 5881,1666 5885,1666 6034,1666 6159,1675 6307,1694 L 6307,1694 C 6341,1701 6368,1712 6398,1729 6448,1758 6484,1794 6513,1844 6541,1893 6554,1941 6555,1997 L 6555,2940 6555,2939 Z"/>
      </g>
     </g>
     <g class="com.sun.star.drawing.ClosedBezierShape">
      <g id="id6">
       <rect class="BoundingBox" stroke="none" fill="none" x="1335" y="5262" width="920" height="1039"/>
       <path fill="rgb(0,0,0)" stroke="none" d="M 1903,6300 C 1525,6300 1336,6052 1336,5780 1336,5508 1532,5263 1907,5263 2050,5263 2152,5292 2239,5343 L 2131,5503 C 2125,5499 2120,5496 2113,5493 2050,5460 1988,5444 1915,5444 1911,5444 1907,5445 1903,5445 1701,5445 1592,5591 1592,5774 1592,5962 1696,6116 1907,6116 L 1907,6116 C 1910,6116 1912,6116 1914,6116 1985,6116 2045,6101 2107,6069 2124,6060 2139,6051 2154,6040 L 2254,6194 C 2197,6240 2065,6300 1903,6300 Z"/>
      </g>
     </g>
     <g class="com.sun.star.drawing.ClosedBezierShape">
      <g id="id7">
       <rect class="BoundingBox" stroke="none" fill="none" x="2301" y="5530" width="817" height="771"/>
       <path fill="rgb(0,0,0)" stroke="none" d="M 2703,5684 C 2582,5684 2543,5777 2543,5911 2543,6046 2590,6144 2711,6144 2832,6144 2875,6053 2875,5918 2875,5782 2826,5684 2703,5684 Z M 2707,6300 C 2426,6300 2301,6107 2301,5918 2301,5728 2424,5531 2706,5531 2987,5531 3117,5722 3117,5912 3117,6098 2991,6300 2707,6300 Z"/>
      </g>
     </g>
     <g class="com.sun.star.drawing.ClosedBezierShape">
      <g id="id8">
       <rect class="BoundingBox" stroke="none" fill="none" x="3244" y="5548" width="744" height="753"/>
       <path fill="rgb(0,0,0)" stroke="none" d="M 3472,5549 L 3472,6019 C 3472,6091 3500,6127 3577,6127 3659,6127 3721,6057 3737,6039 L 3737,5549 3965,5549 3965,6067 3965,6067 C 3965,6070 3965,6072 3965,6076 3965,6149 3971,6210 3987,6282 L 3762,6282 3762,6282 C 3753,6248 3749,6219 3746,6185 L 3746,6185 C 3719,6217 3690,6240 3651,6261 3600,6288 3549,6300 3490,6300 3489,6300 3487,6300 3486,6300 3308,6300 3244,6196 3244,6062 L 3244,5549 3472,5549 3472,5549 Z"/>
      </g>
     </g>
     <g class="com.sun.star.drawing.ClosedBezierShape">
      <g id="id9">
       <rect class="BoundingBox" stroke="none" fill="none" x="4100" y="5530" width="683" height="771"/>
       <path fill="rgb(0,0,0)" stroke="none" d="M 4522,6300 C 4262,6300 4101,6145 4101,5916 4101,5670 4282,5531 4528,5531 4658,5531 4737,5566 4775,5589 L 4702,5730 C 4699,5728 4695,5726 4691,5723 4644,5699 4597,5687 4543,5687 4540,5687 4538,5687 4535,5687 4409,5687 4341,5777 4341,5910 4341,6043 4406,6140 4540,6140 L 4540,6140 C 4542,6140 4543,6140 4544,6140 4603,6140 4652,6128 4703,6101 4706,6100 4709,6098 4712,6096 L 4781,6234 C 4743,6256 4669,6300 4522,6300 Z"/>
      </g>
     </g>
     <g class="com.sun.star.drawing.ClosedBezierShape">
      <g id="id10">
       <rect class="BoundingBox" stroke="none" fill="none" x="4896" y="5200" width="722" height="1083"/>
       <path fill="rgb(0,0,0)" stroke="none" d="M 5389,6282 L 5389,5811 C 5389,5739 5362,5703 5286,5703 5203,5703 5140,5772 5124,5791 L 5124,6281 4897,6281 4897,5200 5124,5200 5124,5637 C 5150,5609 5176,5590 5211,5572 5263,5544 5314,5531 5375,5531 5553,5531 5617,5634 5617,5770 L 5617,6282 5389,6282 Z"/>
      </g>
     </g>
     <g class="com.sun.star.drawing.ClosedBezierShape">
      <g id="id11">
       <rect class="BoundingBox" stroke="none" fill="none" x="5801" y="5200" width="769" height="1100"/>
       <path fill="rgb(0,0,0)" stroke="none" d="M 6029,6122 L 6029,6122 C 6064,6133 6095,6138 6132,6138 6134,6138 6136,6138 6138,6138 6255,6138 6327,6060 6327,5909 6327,5774 6277,5694 6162,5694 L 6162,5694 C 6129,5694 6102,5701 6074,5716 6056,5725 6043,5735 6030,5748 L 6030,6122 6029,6122 Z M 6029,5200 L 6029,5605 C 6048,5589 6066,5576 6088,5565 6132,5542 6175,5531 6226,5530 6426,5530 6568,5654 6568,5909 6568,6163 6382,6299 6138,6299 5954,6299 5842,6257 5802,6240 L 5802,5200 6029,5200 Z"/>
      </g>
     </g>
     <g class="com.sun.star.drawing.ClosedBezierShape">
      <g id="id12">
       <rect class="BoundingBox" stroke="none" fill="none" x="6649" y="5529" width="709" height="772"/>
       <path fill="rgb(0,0,0)" stroke="none" d="M 7107,5958 L 7079,5958 C 6954,5958 6868,5992 6868,6075 6868,6127 6914,6150 6964,6150 6998,6150 7027,6142 7056,6127 7077,6116 7092,6104 7107,6088 L 7107,5958 Z M 7133,6281 L 7133,6281 C 7125,6255 7121,6232 7119,6204 L 7119,6204 C 7096,6229 7072,6248 7041,6264 6994,6288 6948,6300 6894,6300 L 6894,6300 C 6757,6300 6650,6225 6650,6093 6650,5902 6865,5832 7079,5832 L 7107,5832 7107,5792 C 7107,5731 7080,5694 6978,5694 6919,5695 6868,5708 6817,5735 6801,5743 6788,5751 6774,5761 L 6676,5636 C 6725,5596 6832,5530 7005,5530 7228,5530 7334,5607 7334,5803 L 7334,6060 C 7334,6065 7334,6069 7334,6074 7334,6147 7340,6208 7357,6280 L 7134,6280 7133,6281 Z"/>
      </g>
     </g>
     <g class="com.sun.star.drawing.ClosedBezierShape">
      <g id="id13">
       <rect class="BoundingBox" stroke="none" fill="none" x="7453" y="5530" width="613" height="771"/>
       <path fill="rgb(0,0,0)" stroke="none" d="M 7742,6300 C 7596,6300 7503,6261 7454,6231 L 7530,6087 C 7538,6092 7546,6096 7555,6101 7610,6130 7664,6144 7728,6146 7811,6146 7858,6125 7858,6083 7858,6035 7767,6023 7652,5973 7541,5924 7476,5867 7476,5757 7476,5619 7596,5531 7780,5531 7785,5531 7789,5531 7794,5531 7885,5531 7962,5549 8040,5589 L 7961,5730 C 7958,5728 7956,5727 7952,5726 7901,5698 7850,5685 7789,5685 7712,5685 7680,5709 7680,5747 7680,5795 7755,5806 7848,5840 7975,5887 8065,5941 8065,6064 8064,6219 7942,6300 7742,6300 Z"/>
      </g>
     </g>
     <g class="com.sun.star.drawing.ClosedBezierShape">
      <g id="id14">
       <rect class="BoundingBox" stroke="none" fill="none" x="8144" y="5530" width="757" height="771"/>
       <path fill="rgb(0,0,0)" stroke="none" d="M 8678,5826 C 8676,5745 8640,5679 8543,5679 8453,5679 8402,5731 8387,5826 L 8678,5826 Z M 8591,6147 C 8592,6147 8592,6147 8593,6147 8668,6147 8733,6132 8799,6097 L 8800,6096 8873,6229 C 8819,6256 8737,6300 8570,6300 8299,6300 8145,6146 8145,5911 8145,5676 8322,5531 8546,5531 8800,5531 8923,5691 8896,5965 L 8388,5965 C 8399,6075 8461,6146 8591,6146 L 8591,6147 Z"/>
      </g>
     </g>
    </g>
   </g>
  </g>
 </g>
</svg>